<?xml version="1.0" encoding="UTF-8" standalone="no"?><svg xmlns="http://www.w3.org/2000/svg" xmlns:xlink="http://www.w3.org/1999/xlink" contentScriptType="application/ecmascript" contentStyleType="text/css" height="635px" preserveAspectRatio="none" style="width:1064px;height:635px;" version="1.1" viewBox="0 0 1064 635" width="1064px" zoomAndPan="magnify"><defs><filter height="300%" id="f1mxwlm99az264" width="300%" x="-1" y="-1"><feGaussianBlur result="blurOut" stdDeviation="2.0"/><feColorMatrix in="blurOut" result="blurOut2" type="matrix" values="0 0 0 0 0 0 0 0 0 0 0 0 0 0 0 0 0 0 .4 0"/><feOffset dx="4.0" dy="4.0" in="blurOut2" result="blurOut3"/><feBlend in="SourceGraphic" in2="blurOut3" mode="normal"/></filter></defs><g><!--class root--><rect fill="#FEFECE" filter="url(#f1mxwlm99az264)" height="291.2891" id="root" style="stroke: #A80036; stroke-width: 1.5;" width="263" x="274" y="8.5"/><ellipse cx="388.25" cy="24.5" fill="#ADD1B2" rx="11" ry="11" style="stroke: #A80036; stroke-width: 1.0;"/><path d="M391.2188,30.1406 Q390.6406,30.4375 390,30.5859 Q389.3594,30.7344 388.6563,30.7344 Q386.1563,30.7344 384.8359,29.0859 Q383.5156,27.4375 383.5156,24.3125 Q383.5156,21.1875 384.8359,19.5313 Q386.1563,17.875 388.6563,17.875 Q389.3594,17.875 390.0078,18.0313 Q390.6563,18.1875 391.2188,18.4844 L391.2188,21.2031 Q390.5938,20.625 390,20.3516 Q389.4063,20.0781 388.7813,20.0781 Q387.4375,20.0781 386.75,21.1484 Q386.0625,22.2188 386.0625,24.3125 Q386.0625,26.4063 386.75,27.4766 Q387.4375,28.5469 388.7813,28.5469 Q389.4063,28.5469 390,28.2734 Q390.5938,28 391.2188,27.4219 L391.2188,30.1406 Z "/><text fill="#000000" font-family="sans-serif" font-size="12" lengthAdjust="spacingAndGlyphs" textLength="26" x="408.75" y="28.6543">root</text><line style="stroke: #A80036; stroke-width: 1.5;" x1="275" x2="536" y1="40.5" y2="40.5"/><text fill="#000000" font-family="sans-serif" font-size="11" lengthAdjust="spacingAndGlyphs" textLength="251" x="280" y="71.5151">id: 7573f618-2f63-45aa-ae96-8412206ca403</text><text fill="#000000" font-family="sans-serif" font-size="11" lengthAdjust="spacingAndGlyphs" textLength="227" x="280" y="84.3198">merchantRefNum: merchant 03.24.17_3</text><text fill="#000000" font-family="sans-serif" font-size="11" lengthAdjust="spacingAndGlyphs" textLength="183" x="280" y="97.1245">txnTime: 2017-03-24T18:28:28Z</text><text fill="#000000" font-family="sans-serif" font-size="11" lengthAdjust="spacingAndGlyphs" textLength="112" x="280" y="109.9292">status: COMPLETED</text><text fill="#000000" font-family="sans-serif" font-size="11" lengthAdjust="spacingAndGlyphs" textLength="79" x="280" y="122.7339">amount: 1000</text><text fill="#000000" font-family="sans-serif" font-size="11" lengthAdjust="spacingAndGlyphs" textLength="116" x="280" y="135.5386">settleWithAuth: false</text><text fill="#000000" font-family="sans-serif" font-size="11" lengthAdjust="spacingAndGlyphs" textLength="133" x="280" y="148.3433">availableToSettle: 1000</text><text fill="#000000" font-family="sans-serif" font-size="11" lengthAdjust="spacingAndGlyphs" textLength="104" x="280" y="161.1479">authCode: 180796</text><text fill="#000000" font-family="sans-serif" font-size="11" lengthAdjust="spacingAndGlyphs" textLength="140" x="280" y="173.9526">customerIp: 204.91.0.12</text><text fill="#000000" font-family="sans-serif" font-size="11" lengthAdjust="spacingAndGlyphs" textLength="159" x="280" y="186.7573">description: Video purchase</text><text fill="#000000" font-family="sans-serif" font-size="11" lengthAdjust="spacingAndGlyphs" textLength="109" x="280" y="199.562">currencyCode: CAD</text><text fill="#000000" font-family="sans-serif" font-size="11" lengthAdjust="spacingAndGlyphs" textLength="123" x="280" y="212.3667">avsResponse: MATCH</text><text fill="#000000" font-family="sans-serif" font-size="11" lengthAdjust="spacingAndGlyphs" textLength="128" x="280" y="225.1714">cvvVerification: MATCH</text><line style="stroke: #A80036; stroke-width: 1.0; stroke-dasharray: 1.0,2.0;" x1="275" x2="376" y1="54.9023" y2="54.9023"/><text fill="#000000" font-family="sans-serif" font-size="11" lengthAdjust="spacingAndGlyphs" textLength="59" x="376" y="58.2104">Properties</text><line style="stroke: #A80036; stroke-width: 1.0; stroke-dasharray: 1.0,2.0;" x1="435" x2="536" y1="54.9023" y2="54.9023"/><text fill="#000000" font-family="sans-serif" font-size="11" lengthAdjust="spacingAndGlyphs" textLength="115" x="280" y="254.7808">card: [object Object]</text><text fill="#000000" font-family="sans-serif" font-size="11" lengthAdjust="spacingAndGlyphs" textLength="126" x="280" y="267.5854">profile: [object Object]</text><text fill="#000000" font-family="sans-serif" font-size="11" lengthAdjust="spacingAndGlyphs" textLength="162" x="280" y="280.3901">billingDetails: [object Object]</text><text fill="#000000" font-family="sans-serif" font-size="11" lengthAdjust="spacingAndGlyphs" textLength="72" x="280" y="293.1948">links: [Array]</text><line style="stroke: #A80036; stroke-width: 1.0; stroke-dasharray: 1.0,2.0;" x1="275" x2="384" y1="238.168" y2="238.168"/><text fill="#000000" font-family="sans-serif" font-size="11" lengthAdjust="spacingAndGlyphs" textLength="43" x="384" y="241.4761">Objects</text><line style="stroke: #A80036; stroke-width: 1.0; stroke-dasharray: 1.0,2.0;" x1="427" x2="536" y1="238.168" y2="238.168"/><!--class root.card--><rect fill="#FEFECE" filter="url(#f1mxwlm99az264)" height="112.0234" id="root.card" style="stroke: #A80036; stroke-width: 1.5;" width="161" x="6" y="365"/><ellipse cx="68.25" cy="381" fill="#ADD1B2" rx="11" ry="11" style="stroke: #A80036; stroke-width: 1.0;"/><path d="M71.2188,386.6406 Q70.6406,386.9375 70,387.0859 Q69.3594,387.2344 68.6563,387.2344 Q66.1563,387.2344 64.8359,385.5859 Q63.5156,383.9375 63.5156,380.8125 Q63.5156,377.6875 64.8359,376.0313 Q66.1563,374.375 68.6563,374.375 Q69.3594,374.375 70.0078,374.5313 Q70.6563,374.6875 71.2188,374.9844 L71.2188,377.7031 Q70.5938,377.125 70,376.8516 Q69.4063,376.5781 68.7813,376.5781 Q67.4375,376.5781 66.75,377.6484 Q66.0625,378.7188 66.0625,380.8125 Q66.0625,382.9063 66.75,383.9766 Q67.4375,385.0469 68.7813,385.0469 Q69.4063,385.0469 70,384.7734 Q70.5938,384.5 71.2188,383.9219 L71.2188,386.6406 Z "/><text fill="#000000" font-family="sans-serif" font-size="12" lengthAdjust="spacingAndGlyphs" textLength="28" x="88.75" y="385.1543">card</text><line style="stroke: #A80036; stroke-width: 1.5;" x1="7" x2="166" y1="397" y2="397"/><text fill="#000000" font-family="sans-serif" font-size="11" lengthAdjust="spacingAndGlyphs" textLength="42" x="12" y="428.0151">type: VI</text><text fill="#000000" font-family="sans-serif" font-size="11" lengthAdjust="spacingAndGlyphs" textLength="89" x="12" y="440.8198">lastDigits: 1111</text><line style="stroke: #A80036; stroke-width: 1.0; stroke-dasharray: 1.0,2.0;" x1="7" x2="57" y1="411.4023" y2="411.4023"/><text fill="#000000" font-family="sans-serif" font-size="11" lengthAdjust="spacingAndGlyphs" textLength="59" x="57" y="414.7104">Properties</text><line style="stroke: #A80036; stroke-width: 1.0; stroke-dasharray: 1.0,2.0;" x1="116" x2="166" y1="411.4023" y2="411.4023"/><text fill="#000000" font-family="sans-serif" font-size="11" lengthAdjust="spacingAndGlyphs" textLength="149" x="12" y="470.4292">cardExpiry: [object Object]</text><line style="stroke: #A80036; stroke-width: 1.0; stroke-dasharray: 1.0,2.0;" x1="7" x2="65" y1="453.8164" y2="453.8164"/><text fill="#000000" font-family="sans-serif" font-size="11" lengthAdjust="spacingAndGlyphs" textLength="43" x="65" y="457.1245">Objects</text><line style="stroke: #A80036; stroke-width: 1.0; stroke-dasharray: 1.0,2.0;" x1="108" x2="166" y1="453.8164" y2="453.8164"/><!--class root.card.cardExpiry--><rect fill="#FEFECE" filter="url(#f1mxwlm99az264)" height="82.4141" id="root.card.cardExpiry" style="stroke: #A80036; stroke-width: 1.5;" width="96" x="38.25" y="542"/><ellipse cx="53.25" cy="558" fill="#ADD1B2" rx="11" ry="11" style="stroke: #A80036; stroke-width: 1.0;"/><path d="M56.2188,563.6406 Q55.6406,563.9375 55,564.0859 Q54.3594,564.2344 53.6563,564.2344 Q51.1563,564.2344 49.8359,562.5859 Q48.5156,560.9375 48.5156,557.8125 Q48.5156,554.6875 49.8359,553.0313 Q51.1563,551.375 53.6563,551.375 Q54.3594,551.375 55.0078,551.5313 Q55.6563,551.6875 56.2188,551.9844 L56.2188,554.7031 Q55.5938,554.125 55,553.8516 Q54.4063,553.5781 53.7813,553.5781 Q52.4375,553.5781 51.75,554.6484 Q51.0625,555.7188 51.0625,557.8125 Q51.0625,559.9063 51.75,560.9766 Q52.4375,562.0469 53.7813,562.0469 Q54.4063,562.0469 55,561.7734 Q55.5938,561.5 56.2188,560.9219 L56.2188,563.6406 Z "/><text fill="#000000" font-family="sans-serif" font-size="12" lengthAdjust="spacingAndGlyphs" textLength="64" x="67.25" y="562.1543">cardExpiry</text><line style="stroke: #A80036; stroke-width: 1.5;" x1="39.25" x2="133.25" y1="574" y2="574"/><text fill="#000000" font-family="sans-serif" font-size="11" lengthAdjust="spacingAndGlyphs" textLength="51" x="44.25" y="605.0151">month: 2</text><text fill="#000000" font-family="sans-serif" font-size="11" lengthAdjust="spacingAndGlyphs" textLength="61" x="44.25" y="617.8198">year: 2019</text><line style="stroke: #A80036; stroke-width: 1.0; stroke-dasharray: 1.0,2.0;" x1="39.25" x2="56.75" y1="588.4023" y2="588.4023"/><text fill="#000000" font-family="sans-serif" font-size="11" lengthAdjust="spacingAndGlyphs" textLength="59" x="56.75" y="591.7104">Properties</text><line style="stroke: #A80036; stroke-width: 1.0; stroke-dasharray: 1.0,2.0;" x1="115.75" x2="133.25" y1="588.4023" y2="588.4023"/><!--class root.profile--><rect fill="#FEFECE" filter="url(#f1mxwlm99az264)" height="95.2188" id="root.profile" style="stroke: #A80036; stroke-width: 1.5;" width="186" x="202.75" y="373.5"/><ellipse cx="272" cy="389.5" fill="#ADD1B2" rx="11" ry="11" style="stroke: #A80036; stroke-width: 1.0;"/><path d="M274.9688,395.1406 Q274.3906,395.4375 273.75,395.5859 Q273.1094,395.7344 272.4063,395.7344 Q269.9063,395.7344 268.5859,394.0859 Q267.2656,392.4375 267.2656,389.3125 Q267.2656,386.1875 268.5859,384.5313 Q269.9063,382.875 272.4063,382.875 Q273.1094,382.875 273.7578,383.0313 Q274.4063,383.1875 274.9688,383.4844 L274.9688,386.2031 Q274.3438,385.625 273.75,385.3516 Q273.1563,385.0781 272.5313,385.0781 Q271.1875,385.0781 270.5,386.1484 Q269.8125,387.2188 269.8125,389.3125 Q269.8125,391.4063 270.5,392.4766 Q271.1875,393.5469 272.5313,393.5469 Q273.1563,393.5469 273.75,393.2734 Q274.3438,393 274.9688,392.4219 L274.9688,395.1406 Z "/><text fill="#000000" font-family="sans-serif" font-size="12" lengthAdjust="spacingAndGlyphs" textLength="39" x="292.5" y="393.6543">profile</text><line style="stroke: #A80036; stroke-width: 1.5;" x1="203.75" x2="387.75" y1="405.5" y2="405.5"/><text fill="#000000" font-family="sans-serif" font-size="11" lengthAdjust="spacingAndGlyphs" textLength="81" x="208.75" y="436.5151">firstName: Joe</text><text fill="#000000" font-family="sans-serif" font-size="11" lengthAdjust="spacingAndGlyphs" textLength="95" x="208.75" y="449.3198">lastName: Smith</text><text fill="#000000" font-family="sans-serif" font-size="11" lengthAdjust="spacingAndGlyphs" textLength="174" x="208.75" y="462.1245">email: Joe.Smith@canada.com</text><line style="stroke: #A80036; stroke-width: 1.0; stroke-dasharray: 1.0,2.0;" x1="203.75" x2="266.25" y1="419.9023" y2="419.9023"/><text fill="#000000" font-family="sans-serif" font-size="11" lengthAdjust="spacingAndGlyphs" textLength="59" x="266.25" y="423.2104">Properties</text><line style="stroke: #A80036; stroke-width: 1.0; stroke-dasharray: 1.0,2.0;" x1="325.25" x2="387.75" y1="419.9023" y2="419.9023"/><!--class root.billingDetails--><rect fill="#FEFECE" filter="url(#f1mxwlm99az264)" height="120.8281" id="root.billingDetails" style="stroke: #A80036; stroke-width: 1.5;" width="186" x="423.75" y="360.5"/><ellipse cx="473" cy="376.5" fill="#ADD1B2" rx="11" ry="11" style="stroke: #A80036; stroke-width: 1.0;"/><path d="M475.9688,382.1406 Q475.3906,382.4375 474.75,382.5859 Q474.1094,382.7344 473.4063,382.7344 Q470.9063,382.7344 469.5859,381.0859 Q468.2656,379.4375 468.2656,376.3125 Q468.2656,373.1875 469.5859,371.5313 Q470.9063,369.875 473.4063,369.875 Q474.1094,369.875 474.7578,370.0313 Q475.4063,370.1875 475.9688,370.4844 L475.9688,373.2031 Q475.3438,372.625 474.75,372.3516 Q474.1563,372.0781 473.5313,372.0781 Q472.1875,372.0781 471.5,373.1484 Q470.8125,374.2188 470.8125,376.3125 Q470.8125,378.4063 471.5,379.4766 Q472.1875,380.5469 473.5313,380.5469 Q474.1563,380.5469 474.75,380.2734 Q475.3438,380 475.9688,379.4219 L475.9688,382.1406 Z "/><text fill="#000000" font-family="sans-serif" font-size="12" lengthAdjust="spacingAndGlyphs" textLength="79" x="493.5" y="380.6543">billingDetails</text><line style="stroke: #A80036; stroke-width: 1.5;" x1="424.75" x2="608.75" y1="392.5" y2="392.5"/><text fill="#000000" font-family="sans-serif" font-size="11" lengthAdjust="spacingAndGlyphs" textLength="174" x="429.75" y="423.5151">street: 100 Queen Street West</text><text fill="#000000" font-family="sans-serif" font-size="11" lengthAdjust="spacingAndGlyphs" textLength="71" x="429.75" y="436.3198">city: Toronto</text><text fill="#000000" font-family="sans-serif" font-size="11" lengthAdjust="spacingAndGlyphs" textLength="54" x="429.75" y="449.1245">state: ON</text><text fill="#000000" font-family="sans-serif" font-size="11" lengthAdjust="spacingAndGlyphs" textLength="65" x="429.75" y="461.9292">country: CA</text><text fill="#000000" font-family="sans-serif" font-size="11" lengthAdjust="spacingAndGlyphs" textLength="69" x="429.75" y="474.7339">zip: M5H2N2</text><line style="stroke: #A80036; stroke-width: 1.0; stroke-dasharray: 1.0,2.0;" x1="424.75" x2="487.25" y1="406.9023" y2="406.9023"/><text fill="#000000" font-family="sans-serif" font-size="11" lengthAdjust="spacingAndGlyphs" textLength="59" x="487.25" y="410.2104">Properties</text><line style="stroke: #A80036; stroke-width: 1.0; stroke-dasharray: 1.0,2.0;" x1="546.25" x2="608.75" y1="406.9023" y2="406.9023"/><!--class root.links--><rect fill="#FEFECE" filter="url(#f1mxwlm99az264)" height="88.8164" id="root.links" style="stroke: #A80036; stroke-width: 1.5;" width="109" x="645" y="376.5"/><ellipse cx="682.05" cy="392.5" fill="#ADD1B2" rx="11" ry="11" style="stroke: #A80036; stroke-width: 1.0;"/><path d="M685.0188,398.1406 Q684.4406,398.4375 683.8,398.5859 Q683.1594,398.7344 682.4563,398.7344 Q679.9563,398.7344 678.6359,397.0859 Q677.3156,395.4375 677.3156,392.3125 Q677.3156,389.1875 678.6359,387.5313 Q679.9563,385.875 682.4563,385.875 Q683.1594,385.875 683.8078,386.0313 Q684.4563,386.1875 685.0188,386.4844 L685.0188,389.2031 Q684.3938,388.625 683.8,388.3516 Q683.2063,388.0781 682.5813,388.0781 Q681.2375,388.0781 680.55,389.1484 Q679.8625,390.2188 679.8625,392.3125 Q679.8625,394.4063 680.55,395.4766 Q681.2375,396.5469 682.5813,396.5469 Q683.2063,396.5469 683.8,396.2734 Q684.3938,396 685.0188,395.4219 L685.0188,398.1406 Z "/><text fill="#000000" font-family="sans-serif" font-size="12" lengthAdjust="spacingAndGlyphs" textLength="28" x="700.95" y="396.6543">links</text><line style="stroke: #A80036; stroke-width: 1.5;" x1="646" x2="753" y1="408.5" y2="408.5"/><line style="stroke: #A80036; stroke-width: 1.0; stroke-dasharray: 1.0,2.0;" x1="646" x2="670" y1="422.9023" y2="422.9023"/><text fill="#000000" font-family="sans-serif" font-size="11" lengthAdjust="spacingAndGlyphs" textLength="59" x="670" y="426.2104">Properties</text><line style="stroke: #A80036; stroke-width: 1.0; stroke-dasharray: 1.0,2.0;" x1="729" x2="753" y1="422.9023" y2="422.9023"/><text fill="#000000" font-family="sans-serif" font-size="11" lengthAdjust="spacingAndGlyphs" textLength="97" x="651" y="458.7222">0: [object Object]</text><line style="stroke: #A80036; stroke-width: 1.0; stroke-dasharray: 1.0,2.0;" x1="646" x2="678" y1="442.1094" y2="442.1094"/><text fill="#000000" font-family="sans-serif" font-size="11" lengthAdjust="spacingAndGlyphs" textLength="43" x="678" y="445.4175">Objects</text><line style="stroke: #A80036; stroke-width: 1.0; stroke-dasharray: 1.0,2.0;" x1="721" x2="753" y1="442.1094" y2="442.1094"/><!--class root.links.0--><rect fill="#FEFECE" filter="url(#f1mxwlm99az264)" height="82.4141" id="root.links.0" style="stroke: #A80036; stroke-width: 1.5;" width="708" x="345.75" y="542"/><ellipse cx="691.5" cy="558" fill="#ADD1B2" rx="11" ry="11" style="stroke: #A80036; stroke-width: 1.0;"/><path d="M694.4688,563.6406 Q693.8906,563.9375 693.25,564.0859 Q692.6094,564.2344 691.9063,564.2344 Q689.4063,564.2344 688.0859,562.5859 Q686.7656,560.9375 686.7656,557.8125 Q686.7656,554.6875 688.0859,553.0313 Q689.4063,551.375 691.9063,551.375 Q692.6094,551.375 693.2578,551.5313 Q693.9063,551.6875 694.4688,551.9844 L694.4688,554.7031 Q693.8438,554.125 693.25,553.8516 Q692.6563,553.5781 692.0313,553.5781 Q690.6875,553.5781 690,554.6484 Q689.3125,555.7188 689.3125,557.8125 Q689.3125,559.9063 690,560.9766 Q690.6875,562.0469 692.0313,562.0469 Q692.6563,562.0469 693.25,561.7734 Q693.8438,561.5 694.4688,560.9219 L694.4688,563.6406 Z "/><text fill="#000000" font-family="sans-serif" font-size="12" lengthAdjust="spacingAndGlyphs" textLength="8" x="712" y="562.1543">0</text><line style="stroke: #A80036; stroke-width: 1.5;" x1="346.75" x2="1052.75" y1="574" y2="574"/><text fill="#000000" font-family="sans-serif" font-size="11" lengthAdjust="spacingAndGlyphs" textLength="44" x="351.75" y="605.0151">rel: self</text><text fill="#000000" font-family="sans-serif" font-size="11" lengthAdjust="spacingAndGlyphs" textLength="696" x="351.75" y="617.8198">href: https://api.test.paysafe.com/cardpayments/v1/accounts/1001058570/auths/7573f618-2f63-45aa-ae96-8412206ca403</text><line style="stroke: #A80036; stroke-width: 1.0; stroke-dasharray: 1.0,2.0;" x1="346.75" x2="670.25" y1="588.4023" y2="588.4023"/><text fill="#000000" font-family="sans-serif" font-size="11" lengthAdjust="spacingAndGlyphs" textLength="59" x="670.25" y="591.7104">Properties</text><line style="stroke: #A80036; stroke-width: 1.0; stroke-dasharray: 1.0,2.0;" x1="729.25" x2="1052.75" y1="588.4023" y2="588.4023"/><!--link root.card to root.card.cardExpiry--><path d="M86.25,477.063 C86.25,498.396 86.25,522.358 86.25,541.9929 " fill="none" id="root.card-root.card.cardExpiry" style="stroke: #A80036; stroke-width: 1.0;"/><!--link root.links to root.links.0--><path d="M699.25,465.721 C699.25,489.5 699.25,518.704 699.25,541.8962 " fill="none" id="root.links-root.links.0" style="stroke: #A80036; stroke-width: 1.0;"/><!--link root to root.card--><path d="M273.659,264.316 C231.954,298.961 187.621,335.789 152.55,364.923 " fill="none" id="root-root.card" style="stroke: #A80036; stroke-width: 1.0;"/><!--link root to root.profile--><path d="M345.261,299.519 C334.15,326.285 323.314,352.392 314.584,373.422 " fill="none" id="root-root.profile" style="stroke: #A80036; stroke-width: 1.0;"/><!--link root to root.billingDetails--><path d="M465.784,299.519 C474.764,320.956 483.566,341.97 491.24,360.292 " fill="none" id="root-root.billingDetails" style="stroke: #A80036; stroke-width: 1.0;"/><!--link root to root.links--><path d="M536.772,273.548 C577.44,310.205 619.706,348.303 650.933,376.449 " fill="none" id="root-root.links" style="stroke: #A80036; stroke-width: 1.0;"/><!--
@startuml
class "root" as root {
    .. Properties ..
    id: 7573f618-2f63-45aa-ae96-8412206ca403
    merchantRefNum: merchant 03.24.17_3
    txnTime: 2017-03-24T18:28:28Z
    status: COMPLETED
    amount: 1000
    settleWithAuth: false
    availableToSettle: 1000
    authCode: 180796
    customerIp: 204.91.0.12
    description: Video purchase
    currencyCode: CAD
    avsResponse: MATCH
    cvvVerification: MATCH
    .. Objects ..
    card: [object Object]
    profile: [object Object]
    billingDetails: [object Object]
    links: [Array]
}
class "card" as root.card {
    .. Properties ..
    type: VI
    lastDigits: 1111
    .. Objects ..
    cardExpiry: [object Object]
}
class "cardExpiry" as root.card.cardExpiry {
    .. Properties ..
    month: 2
    year: 2019
}
class "profile" as root.profile {
    .. Properties ..
    firstName: Joe
    lastName: Smith
    email: Joe.Smith@canada.com
}
class "billingDetails" as root.billingDetails {
    .. Properties ..
    street: 100 Queen Street West
    city: Toronto
    state: ON
    country: CA
    zip: M5H2N2
}
class "links" as root.links {
    .. Properties ..
    .. Objects ..
    0: [object Object]
}
class "0" as root.links.0 {
    .. Properties ..
    rel: self
    href: https://api.test.paysafe.com/cardpayments/v1/accounts/1001058570/auths/7573f618-2f63-45aa-ae96-8412206ca403
}
root.card - - root.card.cardExpiry
root.links - - root.links.0
root - - root.card
root - - root.profile
root - - root.billingDetails
root - - root.links
@enduml

PlantUML version 1.2019.03(Sun Mar 10 12:04:44 CET 2019)
(GPL source distribution)
Java Runtime: Java(TM) SE Runtime Environment
JVM: Java HotSpot(TM) 64-Bit Server VM
Java Version: 1.8.0_201-b09
Operating System: Linux
OS Version: 4.4.0-143-generic
Default Encoding: UTF-8
Language: fr
Country: FR
--></g></svg>